^D:\FINAL YEAR WORK\SOURCETREEGRAPHICS2\GRAPHICS\GRAPHICSTUTORIAL\GRAPHICSTUTORIAL\DEBUG\APPLICATION.OBJ|D:\FINAL YEAR WORK\SOURCETREEGRAPHICS2\GRAPHICS\GRAPHICSTUTORIAL\GRAPHICSTUTORIAL\DEBUG\CAMERA.OBJ|D:\FINAL YEAR WORK\SOURCETREEGRAPHICS2\GRAPHICS\GRAPHICSTUTORIAL\GRAPHICSTUTORIAL\DEBUG\DDSTEXTURELOADER.OBJ|D:\FINAL YEAR WORK\SOURCETREEGRAPHICS2\GRAPHICS\GRAPHICSTUTORIAL\GRAPHICSTUTORIAL\DEBUG\GAMEOBJECT.OBJ|D:\FINAL YEAR WORK\SOURCETREEGRAPHICS2\GRAPHICS\GRAPHICSTUTORIAL\GRAPHICSTUTORIAL\DEBUG\MAIN.OBJ|D:\FINAL YEAR WORK\SOURCETREEGRAPHICS2\GRAPHICS\GRAPHICSTUTORIAL\GRAPHICSTUTORIAL\DEBUG\MATERIAL.OBJ|D:\FINAL YEAR WORK\SOURCETREEGRAPHICS2\GRAPHICS\GRAPHICSTUTORIAL\GRAPHICSTUTORIAL\DEBUG\MODEL.OBJ|D:\FINAL YEAR WORK\SOURCETREEGRAPHICS2\GRAPHICS\GRAPHICSTUTORIAL\GRAPHICSTUTORIAL\DEBUG\MODELLOADER.OBJ|D:\FINAL YEAR WORK\SOURCETREEGRAPHICS2\GRAPHICS\GRAPHICSTUTORIAL\GRAPHICSTUTORIAL\DEBUG\POSTPROCESSING.OBJ
D:\FINAL YEAR WORK\SOURCETREEGRAPHICS2\GRAPHICS\GRAPHICSTUTORIAL\PACKAGES\DIRECTXTK_DESKTOP_2015.2019.8.23.1\LIB\WIN32\DEBUG\DIRECTXTK.LIB
D:\FINAL YEAR WORK\SOURCETREEGRAPHICS2\GRAPHICS\GRAPHICSTUTORIAL\PACKAGES\DIRECTXTK_DESKTOP_2015.2019.8.23.1\LIB\WIN32\DEBUG\DIRECTXTKAUDIOWIN8.LIB
D:\WINDOWS KITS\10\LIB\10.0.17763.0\UM\X86\D3D11.LIB
D:\WINDOWS KITS\10\LIB\10.0.17763.0\UM\X86\D3DCOMPILER.LIB
D:\WINDOWS KITS\10\LIB\10.0.17763.0\UM\X86\KERNEL32.LIB
D:\WINDOWS KITS\10\LIB\10.0.17763.0\UM\X86\USER32.LIB
D:\WINDOWS KITS\10\LIB\10.0.17763.0\UM\X86\GDI32.LIB
D:\WINDOWS KITS\10\LIB\10.0.17763.0\UM\X86\WINSPOOL.LIB
D:\WINDOWS KITS\10\LIB\10.0.17763.0\UM\X86\COMDLG32.LIB
D:\WINDOWS KITS\10\LIB\10.0.17763.0\UM\X86\ADVAPI32.LIB
D:\WINDOWS KITS\10\LIB\10.0.17763.0\UM\X86\SHELL32.LIB
D:\WINDOWS KITS\10\LIB\10.0.17763.0\UM\X86\OLE32.LIB
D:\WINDOWS KITS\10\LIB\10.0.17763.0\UM\X86\OLEAUT32.LIB
D:\WINDOWS KITS\10\LIB\10.0.17763.0\UM\X86\UUID.LIB
D:\WINDOWS KITS\10\LIB\10.0.17763.0\UM\X86\ODBC32.LIB
D:\WINDOWS KITS\10\LIB\10.0.17763.0\UM\X86\ODBCCP32.LIB
D:\FINAL YEAR WORK\SOURCETREEGRAPHICS2\GRAPHICS\GRAPHICSTUTORIAL\GRAPHICSTUTORIAL\DEBUG\APPLICATION.OBJ
D:\FINAL YEAR WORK\SOURCETREEGRAPHICS2\GRAPHICS\GRAPHICSTUTORIAL\GRAPHICSTUTORIAL\DEBUG\CAMERA.OBJ
D:\FINAL YEAR WORK\SOURCETREEGRAPHICS2\GRAPHICS\GRAPHICSTUTORIAL\GRAPHICSTUTORIAL\DEBUG\DDSTEXTURELOADER.OBJ
D:\FINAL YEAR WORK\SOURCETREEGRAPHICS2\GRAPHICS\GRAPHICSTUTORIAL\GRAPHICSTUTORIAL\DEBUG\GAMEOBJECT.OBJ
D:\FINAL YEAR WORK\SOURCETREEGRAPHICS2\GRAPHICS\GRAPHICSTUTORIAL\GRAPHICSTUTORIAL\DEBUG\MAIN.OBJ
D:\FINAL YEAR WORK\SOURCETREEGRAPHICS2\GRAPHICS\GRAPHICSTUTORIAL\GRAPHICSTUTORIAL\DEBUG\MATERIAL.OBJ
D:\FINAL YEAR WORK\SOURCETREEGRAPHICS2\GRAPHICS\GRAPHICSTUTORIAL\GRAPHICSTUTORIAL\DEBUG\MODEL.OBJ
D:\FINAL YEAR WORK\SOURCETREEGRAPHICS2\GRAPHICS\GRAPHICSTUTORIAL\GRAPHICSTUTORIAL\DEBUG\MODELLOADER.OBJ
D:\FINAL YEAR WORK\SOURCETREEGRAPHICS2\GRAPHICS\GRAPHICSTUTORIAL\GRAPHICSTUTORIAL\DEBUG\POSTPROCESSING.OBJ
C:\WINDOWS\SYSTEM32\TZRES.DLL
C:\WINDOWS\GLOBALIZATION\SORTING\SORTDEFAULT.NLS
D:\VISUAL STUDIO\VC\TOOLS\MSVC\14.21.27702\LIB\X86\MSVCPRTD.LIB
D:\VISUAL STUDIO\VC\TOOLS\MSVC\14.21.27702\LIB\X86\MSVCRTD.LIB
D:\VISUAL STUDIO\VC\TOOLS\MSVC\14.21.27702\LIB\X86\OLDNAMES.LIB
D:\WINDOWS KITS\10\LIB\10.0.17763.0\UM\X86\DXGUID.LIB
D:\VISUAL STUDIO\VC\TOOLS\MSVC\14.21.27702\LIB\X86\VCRUNTIMED.LIB
D:\WINDOWS KITS\10\LIB\10.0.17763.0\UCRT\X86\UCRTD.LIB
