^D:\FINAL YEAR WORK\GRAPHICS\GRAPHICSTUTORIAL\GRAPHICSTUTORIAL\CAMERA.CPP
/c /I"D:\FINAL YEAR WORK\GRAPHICS\GRAPHICSTUTORIAL\PACKAGES\DIRECTXTK_DESKTOP_2015.2019.8.23.1\BUILD\NATIVE\..\..\INCLUDE" /ZI /JMC /nologo /W3 /WX- /diagnostics:column /sdl- /Od /D HAS_DIRECTXTK /D _CRT_SECURE_NO_WARNINGS /D _DEBUG /D _CONSOLE /D _UNICODE /D UNICODE /Gm- /EHsc /RTC1 /MDd /GS /fp:precise /permissive- /Zc:wchar_t /Zc:forScope /Zc:inline /Fo"X64\DEBUG\\" /Fd"X64\DEBUG\VC142.PDB" /Gd /TP /FC D:\FINAL YEAR WORK\GRAPHICS\GRAPHICSTUTORIAL\GRAPHICSTUTORIAL\CAMERA.CPP
^D:\FINAL YEAR WORK\GRAPHICS\GRAPHICSTUTORIAL\GRAPHICSTUTORIAL\DDSTEXTURELOADER.CPP
/c /I"D:\FINAL YEAR WORK\GRAPHICS\GRAPHICSTUTORIAL\PACKAGES\DIRECTXTK_DESKTOP_2015.2019.8.23.1\BUILD\NATIVE\..\..\INCLUDE" /ZI /JMC /nologo /W3 /WX- /diagnostics:column /sdl- /Od /D HAS_DIRECTXTK /D _CRT_SECURE_NO_WARNINGS /D _DEBUG /D _CONSOLE /D _UNICODE /D UNICODE /Gm- /EHsc /RTC1 /MDd /GS /fp:precise /permissive- /Zc:wchar_t /Zc:forScope /Zc:inline /Fo"X64\DEBUG\\" /Fd"X64\DEBUG\VC142.PDB" /Gd /TP /FC D:\FINAL YEAR WORK\GRAPHICS\GRAPHICSTUTORIAL\GRAPHICSTUTORIAL\DDSTEXTURELOADER.CPP
^D:\FINAL YEAR WORK\GRAPHICS\GRAPHICSTUTORIAL\GRAPHICSTUTORIAL\MATERIAL.CPP
/c /I"D:\FINAL YEAR WORK\GRAPHICS\GRAPHICSTUTORIAL\PACKAGES\DIRECTXTK_DESKTOP_2015.2019.8.23.1\BUILD\NATIVE\..\..\INCLUDE" /ZI /JMC /nologo /W3 /WX- /diagnostics:column /sdl- /Od /D HAS_DIRECTXTK /D _CRT_SECURE_NO_WARNINGS /D _DEBUG /D _CONSOLE /D _UNICODE /D UNICODE /Gm- /EHsc /RTC1 /MDd /GS /fp:precise /permissive- /Zc:wchar_t /Zc:forScope /Zc:inline /Fo"X64\DEBUG\\" /Fd"X64\DEBUG\VC142.PDB" /Gd /TP /FC D:\FINAL YEAR WORK\GRAPHICS\GRAPHICSTUTORIAL\GRAPHICSTUTORIAL\MATERIAL.CPP
^D:\FINAL YEAR WORK\GRAPHICS\GRAPHICSTUTORIAL\GRAPHICSTUTORIAL\MODEL.CPP
/c /I"D:\FINAL YEAR WORK\GRAPHICS\GRAPHICSTUTORIAL\PACKAGES\DIRECTXTK_DESKTOP_2015.2019.8.23.1\BUILD\NATIVE\..\..\INCLUDE" /ZI /JMC /nologo /W3 /WX- /diagnostics:column /sdl- /Od /D HAS_DIRECTXTK /D _CRT_SECURE_NO_WARNINGS /D _DEBUG /D _CONSOLE /D _UNICODE /D UNICODE /Gm- /EHsc /RTC1 /MDd /GS /fp:precise /permissive- /Zc:wchar_t /Zc:forScope /Zc:inline /Fo"X64\DEBUG\\" /Fd"X64\DEBUG\VC142.PDB" /Gd /TP /FC D:\FINAL YEAR WORK\GRAPHICS\GRAPHICSTUTORIAL\GRAPHICSTUTORIAL\MODEL.CPP
^D:\FINAL YEAR WORK\GRAPHICS\GRAPHICSTUTORIAL\GRAPHICSTUTORIAL\MODELLOADER.CPP
/c /I"D:\FINAL YEAR WORK\GRAPHICS\GRAPHICSTUTORIAL\PACKAGES\DIRECTXTK_DESKTOP_2015.2019.8.23.1\BUILD\NATIVE\..\..\INCLUDE" /ZI /JMC /nologo /W3 /WX- /diagnostics:column /sdl- /Od /D HAS_DIRECTXTK /D _CRT_SECURE_NO_WARNINGS /D _DEBUG /D _CONSOLE /D _UNICODE /D UNICODE /Gm- /EHsc /RTC1 /MDd /GS /fp:precise /permissive- /Zc:wchar_t /Zc:forScope /Zc:inline /Fo"X64\DEBUG\\" /Fd"X64\DEBUG\VC142.PDB" /Gd /TP /FC D:\FINAL YEAR WORK\GRAPHICS\GRAPHICSTUTORIAL\GRAPHICSTUTORIAL\MODELLOADER.CPP
^D:\FINAL YEAR WORK\GRAPHICS\GRAPHICSTUTORIAL\GRAPHICSTUTORIAL\MAIN.CPP
/c /I"D:\FINAL YEAR WORK\GRAPHICS\GRAPHICSTUTORIAL\PACKAGES\DIRECTXTK_DESKTOP_2015.2019.8.23.1\BUILD\NATIVE\..\..\INCLUDE" /ZI /JMC /nologo /W3 /WX- /diagnostics:column /sdl- /Od /D HAS_DIRECTXTK /D _CRT_SECURE_NO_WARNINGS /D _DEBUG /D _CONSOLE /D _UNICODE /D UNICODE /Gm- /EHsc /RTC1 /MDd /GS /fp:precise /permissive- /Zc:wchar_t /Zc:forScope /Zc:inline /Fo"X64\DEBUG\\" /Fd"X64\DEBUG\VC142.PDB" /Gd /TP /FC D:\FINAL YEAR WORK\GRAPHICS\GRAPHICSTUTORIAL\GRAPHICSTUTORIAL\MAIN.CPP
^D:\FINAL YEAR WORK\GRAPHICS\GRAPHICSTUTORIAL\GRAPHICSTUTORIAL\APPLICATION.CPP
/c /I"D:\FINAL YEAR WORK\GRAPHICS\GRAPHICSTUTORIAL\PACKAGES\DIRECTXTK_DESKTOP_2015.2019.8.23.1\BUILD\NATIVE\..\..\INCLUDE" /ZI /JMC /nologo /W3 /WX- /diagnostics:column /sdl- /Od /D HAS_DIRECTXTK /D _CRT_SECURE_NO_WARNINGS /D _DEBUG /D _CONSOLE /D _UNICODE /D UNICODE /Gm- /EHsc /RTC1 /MDd /GS /fp:precise /permissive- /Zc:wchar_t /Zc:forScope /Zc:inline /Fo"X64\DEBUG\\" /Fd"X64\DEBUG\VC142.PDB" /Gd /TP /FC D:\FINAL YEAR WORK\GRAPHICS\GRAPHICSTUTORIAL\GRAPHICSTUTORIAL\APPLICATION.CPP
^D:\FINAL YEAR WORK\GRAPHICS\GRAPHICSTUTORIAL\GRAPHICSTUTORIAL\GAMEOBJECT.CPP
/c /I"D:\FINAL YEAR WORK\GRAPHICS\GRAPHICSTUTORIAL\PACKAGES\DIRECTXTK_DESKTOP_2015.2019.8.23.1\BUILD\NATIVE\..\..\INCLUDE" /ZI /JMC /nologo /W3 /WX- /diagnostics:column /sdl- /Od /D HAS_DIRECTXTK /D _CRT_SECURE_NO_WARNINGS /D _DEBUG /D _CONSOLE /D _UNICODE /D UNICODE /Gm- /EHsc /RTC1 /MDd /GS /fp:precise /permissive- /Zc:wchar_t /Zc:forScope /Zc:inline /Fo"X64\DEBUG\\" /Fd"X64\DEBUG\VC142.PDB" /Gd /TP /FC D:\FINAL YEAR WORK\GRAPHICS\GRAPHICSTUTORIAL\GRAPHICSTUTORIAL\GAMEOBJECT.CPP
